<?xml version="1.0" encoding="UTF-8" standalone="no"?>
<svg width="20px" height="32px" viewBox="0 0 20 32" version="1.1" xmlns="http://www.w3.org/2000/svg" xmlns:xlink="http://www.w3.org/1999/xlink" xmlns:sketch="http://www.bohemiancoding.com/sketch/ns">
    <!-- Generator: Sketch 3.1 (8751) - http://www.bohemiancoding.com/sketch -->
    <title>Fill 326</title>
    <desc>Created with Sketch.</desc>
    <defs></defs>
    <g id="Main" stroke="none" stroke-width="1" fill="none" fill-rule="ffffff" sketch:type="MSPage">
        <g id="1200" sketch:type="MSArtboardGroup" transform="translate(-1160.000000, -1001.000000)" fill="#FFFFFF" opacity="1">
            <path d="M1178.19462,1033 L1180,1030.71768 L1164.39938,1017 L1180,1003.28232 L1178.19462,1001 L1160,1017 L1178.19462,1033" id="Fill-326" sketch:type="MSShapeGroup" transform="translate(1170.000000, 1017.000000) rotate(-180.000000) translate(-1170.000000, -1017.000000) "></path>
        </g>
    </g>
</svg>