<?xml version="1.0" encoding="UTF-8" standalone="no"?>
<svg width="16px" height="16px" viewBox="0 0 16 16" version="1.1" xmlns="http://www.w3.org/2000/svg" xmlns:xlink="http://www.w3.org/1999/xlink" xmlns:sketch="http://www.bohemiancoding.com/sketch/ns">
    <!-- Generator: Sketch 3.1 (8751) - http://www.bohemiancoding.com/sketch -->
    <title>Fill 2378</title>
    <desc>Created with Sketch.</desc>
    <defs></defs>
    <g id="Main" stroke="none" stroke-width="1" fill="none" fill-rule="evenodd" sketch:type="MSPage">
        <g id="Hovers" sketch:type="MSArtboardGroup" transform="translate(-824.000000, -2218.000000)" fill="#7AAE35" opacity="0.7">
            <path d="M831.792756,2218.70135 C827.614756,2218.70135 824.227756,2222.08735 824.227756,2226.26535 C824.227756,2230.44335 827.614756,2233.82935 831.792756,2233.82935 C835.969756,2233.82935 839.356756,2230.44335 839.356756,2226.26535 C839.356756,2222.08735 835.969756,2218.70135 831.792756,2218.70135 L831.792756,2218.70135 Z M831.435756,2229.53435 L830.898756,2230.11535 L830.384756,2229.51535 L827.464756,2226.11835 L828.415756,2225.09335 L830.781756,2226.83535 L835.953756,2222.58735 L836.918756,2223.61135 L831.435756,2229.53435 L831.435756,2229.53435 Z" id="Fill-2378" sketch:type="MSShapeGroup"></path>
        </g>
    </g>
</svg>