<?xml version="1.0" encoding="UTF-8" standalone="no"?>
<svg width="20px" height="21px" viewBox="0 0 20 21" version="1.1" xmlns="http://www.w3.org/2000/svg" xmlns:xlink="http://www.w3.org/1999/xlink" xmlns:sketch="http://www.bohemiancoding.com/sketch/ns">
    <!-- Generator: Sketch 3.1 (8751) - http://www.bohemiancoding.com/sketch -->
    <title>Facebook 2</title>
    <desc>Created with Sketch.</desc>
    <defs></defs>
    <g id="Main" stroke="none" stroke-width="1" fill="none" fill-rule="evenodd" sketch:type="MSPage">
        <g id="1440" sketch:type="MSArtboardGroup" transform="translate(-935.000000, -2989.000000)" fill="#5370A1" opacity="1">
            <path d="M935,2989.91632 L935,3009.91632 L955,3009.91632 L955,2989.91632 L935,2989.91632 Z M944,3005 L944,2999.91568 L942,2999.91568 L943,2998.04085 L944,2998.04085 L944,2996 C944,2994.47051 944.222516,2994 946.0241,2994 L948,2994 L948,2996 L947,2996 C946.298688,2996 946.0241,2996.42643 946.0241,2996.91541 L946.0241,2998.04085 L948,2998.04085 L948,2999.91568 L946.0241,2999.91568 L946.0241,3005 L944,3005 Z" id="Facebook-2" sketch:type="MSShapeGroup"></path>
        </g>
    </g>
</svg>